; ModuleID = 'probe2.6109820e-cgu.0'
source_filename = "probe2.6109820e-cgu.0"
target datalayout = "e-m:w-p270:32:32-p271:32:32-p272:64:64-i64:64-f80:128-n8:16:32:64-S128"
target triple = "x86_64-pc-windows-gnu"

!llvm.module.flags = !{!0}

!0 = !{i32 7, !"PIC Level", i32 2}
