; ModuleID = 'probe2.6109820e-cgu.0'
source_filename = "probe2.6109820e-cgu.0"
target datalayout = "e-m:w-p270:32:32-p271:32:32-p272:64:64-i64:64-f80:128-n8:16:32:64-S128"
target triple = "x86_64-pc-windows-gnu"

; probe2::probe
; Function Attrs: uwtable
define void @_ZN6probe25probe17hac59d0d8b58b64caE() unnamed_addr #0 {
start:
  %0 = alloca i32, align 4
  store i32 -2147483648, ptr %0, align 4
  %1 = load i32, ptr %0, align 4
  br label %bb1

bb1:                                              ; preds = %start
  ret void
}

; Function Attrs: nocallback nofree nosync nounwind readnone speculatable willreturn
declare i32 @llvm.bitreverse.i32(i32) #1

attributes #0 = { uwtable "target-cpu"="x86-64" }
attributes #1 = { nocallback nofree nosync nounwind readnone speculatable willreturn }

!llvm.module.flags = !{!0}

!0 = !{i32 7, !"PIC Level", i32 2}
